Generating initial Y...
c:\Projects\DataMiningSeminar\master\DataMiningSeminar\DataMiningSeminar.py:39: FutureWarning: comparison to `None` will result in an elementwise object comparison in the future.
  if Y0 == None:
Initial Y generated, calculate P-s...
Error after iteration 1: 0.228648; mean column variance: 0.820279; ||Y - Y0|| = 0.289429
Error after iteration 2: 0.211212; mean column variance: 0.904924; ||Y - Y0|| = 0.350280
Error after iteration 3: 0.201852; mean column variance: 0.915631; ||Y - Y0|| = 0.369940
Error after iteration 4: 0.195885; mean column variance: 0.921338; ||Y - Y0|| = 0.384468
Error after iteration 5: 0.191384; mean column variance: 0.925343; ||Y - Y0|| = 0.396941
Error after iteration 6: 0.187730; mean column variance: 0.928466; ||Y - Y0|| = 0.408287
Error after iteration 7: 0.184638; mean column variance: 0.931033; ||Y - Y0|| = 0.418889
Error after iteration 8: 0.181949; mean column variance: 0.933218; ||Y - Y0|| = 0.428938
Error after iteration 9: 0.179563; mean column variance: 0.935121; ||Y - Y0|| = 0.438545
Error after iteration 10: 0.177417; mean column variance: 0.936808; ||Y - Y0|| = 0.447784
Error after iteration 11: 0.175463; mean column variance: 0.938323; ||Y - Y0|| = 0.456703
Error after iteration 12: 0.173669; mean column variance: 0.939698; ||Y - Y0|| = 0.465340
Error after iteration 13: 0.172009; mean column variance: 0.940957; ||Y - Y0|| = 0.473722
Error after iteration 14: 0.170465; mean column variance: 0.942117; ||Y - Y0|| = 0.481871
Error after iteration 15: 0.169019; mean column variance: 0.943193; ||Y - Y0|| = 0.489804
Error after iteration 16: 0.167662; mean column variance: 0.944196; ||Y - Y0|| = 0.497535
Error after iteration 17: 0.166382; mean column variance: 0.945134; ||Y - Y0|| = 0.505077
Error after iteration 18: 0.165172; mean column variance: 0.946014; ||Y - Y0|| = 0.512439
Error after iteration 19: 0.164024; mean column variance: 0.946844; ||Y - Y0|| = 0.519629
Error after iteration 20: 0.162934; mean column variance: 0.947626; ||Y - Y0|| = 0.526657
Error after iteration 21: 0.161896; mean column variance: 0.948367; ||Y - Y0|| = 0.533527
Error after iteration 22: 0.160906; mean column variance: 0.949069; ||Y - Y0|| = 0.540246
Error after iteration 23: 0.159961; mean column variance: 0.949735; ||Y - Y0|| = 0.546818
Error after iteration 24: 0.159057; mean column variance: 0.950369; ||Y - Y0|| = 0.553250
Error after iteration 25: 0.158191; mean column variance: 0.950973; ||Y - Y0|| = 0.559544
Error after iteration 26: 0.157362; mean column variance: 0.951549; ||Y - Y0|| = 0.565706
Error after iteration 27: 0.156566; mean column variance: 0.952099; ||Y - Y0|| = 0.571738
Error after iteration 28: 0.155802; mean column variance: 0.952624; ||Y - Y0|| = 0.577644
Error after iteration 29: 0.155069; mean column variance: 0.953126; ||Y - Y0|| = 0.583428
Error after iteration 30: 0.154363; mean column variance: 0.953607; ||Y - Y0|| = 0.589093
Error after iteration 31: 0.153684; mean column variance: 0.954067; ||Y - Y0|| = 0.594642
Error after iteration 32: 0.153031; mean column variance: 0.954509; ||Y - Y0|| = 0.600077
Error after iteration 33: 0.152402; mean column variance: 0.954932; ||Y - Y0|| = 0.605402
Error after iteration 34: 0.151795; mean column variance: 0.955339; ||Y - Y0|| = 0.610619
Error after iteration 35: 0.151211; mean column variance: 0.955729; ||Y - Y0|| = 0.615731
Error after iteration 36: 0.150647; mean column variance: 0.956105; ||Y - Y0|| = 0.620741
Error after iteration 37: 0.150102; mean column variance: 0.956466; ||Y - Y0|| = 0.625651
Error after iteration 38: 0.149577; mean column variance: 0.956813; ||Y - Y0|| = 0.630463
Error after iteration 39: 0.149069; mean column variance: 0.957148; ||Y - Y0|| = 0.635180
Error after iteration 40: 0.148579; mean column variance: 0.957470; ||Y - Y0|| = 0.639804
Error after iteration 41: 0.148105; mean column variance: 0.957781; ||Y - Y0|| = 0.644337
Error after iteration 42: 0.147646; mean column variance: 0.958080; ||Y - Y0|| = 0.648782
Error after iteration 43: 0.147203; mean column variance: 0.958369; ||Y - Y0|| = 0.653141
Error after iteration 44: 0.146773; mean column variance: 0.958648; ||Y - Y0|| = 0.657416
Error after iteration 45: 0.146358; mean column variance: 0.958917; ||Y - Y0|| = 0.661609
Error after iteration 46: 0.145955; mean column variance: 0.959177; ||Y - Y0|| = 0.665721
Error after iteration 47: 0.145565; mean column variance: 0.959429; ||Y - Y0|| = 0.669756
Error after iteration 48: 0.145188; mean column variance: 0.959672; ||Y - Y0|| = 0.673715
Error after iteration 49: 0.144821; mean column variance: 0.959907; ||Y - Y0|| = 0.677599
Error after iteration 50: 0.144466; mean column variance: 0.960135; ||Y - Y0|| = 0.681411
Error after iteration 51: 0.144121; mean column variance: 0.960355; ||Y - Y0|| = 0.685152
Error after iteration 52: 0.143786; mean column variance: 0.960568; ||Y - Y0|| = 0.688825
Error after iteration 53: 0.143462; mean column variance: 0.960775; ||Y - Y0|| = 0.692430
Error after iteration 54: 0.143146; mean column variance: 0.960976; ||Y - Y0|| = 0.695970
Error after iteration 55: 0.142840; mean column variance: 0.961170; ||Y - Y0|| = 0.699447
Error after iteration 56: 0.142542; mean column variance: 0.961359; ||Y - Y0|| = 0.702861
Error after iteration 57: 0.142252; mean column variance: 0.961542; ||Y - Y0|| = 0.706214
Error after iteration 58: 0.141971; mean column variance: 0.961720; ||Y - Y0|| = 0.709508
Error after iteration 59: 0.141697; mean column variance: 0.961892; ||Y - Y0|| = 0.712745
Error after iteration 60: 0.141430; mean column variance: 0.962060; ||Y - Y0|| = 0.715925
Error after iteration 61: 0.141171; mean column variance: 0.962223; ||Y - Y0|| = 0.719050
Error after iteration 62: 0.140918; mean column variance: 0.962382; ||Y - Y0|| = 0.722122
Error after iteration 63: 0.140672; mean column variance: 0.962536; ||Y - Y0|| = 0.725142
Error after iteration 64: 0.140432; mean column variance: 0.962686; ||Y - Y0|| = 0.728111
Error after iteration 65: 0.140199; mean column variance: 0.962832; ||Y - Y0|| = 0.731030
Error after iteration 66: 0.139971; mean column variance: 0.962974; ||Y - Y0|| = 0.733901
Error after iteration 67: 0.139749; mean column variance: 0.963113; ||Y - Y0|| = 0.736725
Error after iteration 68: 0.139532; mean column variance: 0.963248; ||Y - Y0|| = 0.739503
Error after iteration 69: 0.139321; mean column variance: 0.963380; ||Y - Y0|| = 0.742235
Error after iteration 70: 0.139115; mean column variance: 0.963508; ||Y - Y0|| = 0.744924
Error after iteration 71: 0.138913; mean column variance: 0.963633; ||Y - Y0|| = 0.747570
Error after iteration 72: 0.138717; mean column variance: 0.963756; ||Y - Y0|| = 0.750175
Error after iteration 73: 0.138524; mean column variance: 0.963875; ||Y - Y0|| = 0.752739
Error after iteration 74: 0.138337; mean column variance: 0.963991; ||Y - Y0|| = 0.755263
Error after iteration 75: 0.138153; mean column variance: 0.964105; ||Y - Y0|| = 0.757748
Error after iteration 76: 0.137973; mean column variance: 0.964216; ||Y - Y0|| = 0.760196
Error after iteration 77: 0.137798; mean column variance: 0.964325; ||Y - Y0|| = 0.762606
Error after iteration 78: 0.137626; mean column variance: 0.964431; ||Y - Y0|| = 0.764981
Error after iteration 79: 0.137458; mean column variance: 0.964535; ||Y - Y0|| = 0.767320
Error after iteration 80: 0.137294; mean column variance: 0.964637; ||Y - Y0|| = 0.769625
Error after iteration 81: 0.137133; mean column variance: 0.964736; ||Y - Y0|| = 0.771896
Error after iteration 82: 0.136975; mean column variance: 0.964834; ||Y - Y0|| = 0.774135
Error after iteration 83: 0.136821; mean column variance: 0.964929; ||Y - Y0|| = 0.776342
Error after iteration 84: 0.136669; mean column variance: 0.965022; ||Y - Y0|| = 0.778517
Error after iteration 85: 0.136521; mean column variance: 0.965114; ||Y - Y0|| = 0.780662
Error after iteration 86: 0.136375; mean column variance: 0.965203; ||Y - Y0|| = 0.782777
Error after iteration 87: 0.136233; mean column variance: 0.965291; ||Y - Y0|| = 0.784863
Error after iteration 88: 0.136093; mean column variance: 0.965377; ||Y - Y0|| = 0.786921
Error after iteration 89: 0.135956; mean column variance: 0.965462; ||Y - Y0|| = 0.788950
Error after iteration 90: 0.135821; mean column variance: 0.965545; ||Y - Y0|| = 0.790953
Error after iteration 91: 0.135689; mean column variance: 0.965626; ||Y - Y0|| = 0.792929
Error after iteration 92: 0.135559; mean column variance: 0.965706; ||Y - Y0|| = 0.794878
Error after iteration 93: 0.135432; mean column variance: 0.965784; ||Y - Y0|| = 0.796803
Error after iteration 94: 0.135307; mean column variance: 0.965861; ||Y - Y0|| = 0.798703
Error after iteration 95: 0.135184; mean column variance: 0.965937; ||Y - Y0|| = 0.800578
Error after iteration 96: 0.135063; mean column variance: 0.966011; ||Y - Y0|| = 0.802429
Error after iteration 97: 0.134945; mean column variance: 0.966084; ||Y - Y0|| = 0.804258
Error after iteration 98: 0.134828; mean column variance: 0.966156; ||Y - Y0|| = 0.806063
Error after iteration 99: 0.134714; mean column variance: 0.966226; ||Y - Y0|| = 0.807846
Error after iteration 100: 0.134601; mean column variance: 0.966295; ||Y - Y0|| = 0.809608
Error after iteration 101: 0.134490; mean column variance: 0.966363; ||Y - Y0|| = 0.811348
Error after iteration 102: 0.134381; mean column variance: 0.966430; ||Y - Y0|| = 0.813067
Error after iteration 103: 0.134274; mean column variance: 0.966496; ||Y - Y0|| = 0.814766
Error after iteration 104: 0.134168; mean column variance: 0.966561; ||Y - Y0|| = 0.816445
Error after iteration 105: 0.134064; mean column variance: 0.966625; ||Y - Y0|| = 0.818104
Error after iteration 106: 0.133962; mean column variance: 0.966688; ||Y - Y0|| = 0.819744
Error after iteration 107: 0.133861; mean column variance: 0.966750; ||Y - Y0|| = 0.821365
Error after iteration 108: 0.133762; mean column variance: 0.966811; ||Y - Y0|| = 0.822968
Error after iteration 109: 0.133664; mean column variance: 0.966871; ||Y - Y0|| = 0.824552
Error after iteration 110: 0.133568; mean column variance: 0.966930; ||Y - Y0|| = 0.826119
Error after iteration 111: 0.133473; mean column variance: 0.966988; ||Y - Y0|| = 0.827669
Error after iteration 112: 0.133379; mean column variance: 0.967045; ||Y - Y0|| = 0.829202
Error after iteration 113: 0.133287; mean column variance: 0.967102; ||Y - Y0|| = 0.830718
Error after iteration 114: 0.133196; mean column variance: 0.967158; ||Y - Y0|| = 0.832218
Error after iteration 115: 0.133107; mean column variance: 0.967213; ||Y - Y0|| = 0.833701
Error after iteration 116: 0.133019; mean column variance: 0.967267; ||Y - Y0|| = 0.835169
Error after iteration 117: 0.132931; mean column variance: 0.967320; ||Y - Y0|| = 0.836622
Error after iteration 118: 0.132846; mean column variance: 0.967373; ||Y - Y0|| = 0.838059
Error after iteration 119: 0.132761; mean column variance: 0.967425; ||Y - Y0|| = 0.839482
Error after iteration 120: 0.132677; mean column variance: 0.967476; ||Y - Y0|| = 0.840890
Error after iteration 121: 0.132595; mean column variance: 0.967527; ||Y - Y0|| = 0.842284
Error after iteration 122: 0.132513; mean column variance: 0.967577; ||Y - Y0|| = 0.843663
Error after iteration 123: 0.132433; mean column variance: 0.967626; ||Y - Y0|| = 0.845029
Error after iteration 124: 0.132354; mean column variance: 0.967675; ||Y - Y0|| = 0.846382
Error after iteration 125: 0.132275; mean column variance: 0.967723; ||Y - Y0|| = 0.847721
Error after iteration 126: 0.132198; mean column variance: 0.967770; ||Y - Y0|| = 0.849047
Error after iteration 127: 0.132121; mean column variance: 0.967817; ||Y - Y0|| = 0.850360
Error after iteration 128: 0.132046; mean column variance: 0.967863; ||Y - Y0|| = 0.851661
Error after iteration 129: 0.131971; mean column variance: 0.967909; ||Y - Y0|| = 0.852950
Error after iteration 130: 0.131898; mean column variance: 0.967954; ||Y - Y0|| = 0.854226
Error after iteration 131: 0.131825; mean column variance: 0.967998; ||Y - Y0|| = 0.855490
Error after iteration 132: 0.131753; mean column variance: 0.968042; ||Y - Y0|| = 0.856743
Error after iteration 133: 0.131682; mean column variance: 0.968086; ||Y - Y0|| = 0.857984
Error after iteration 134: 0.131612; mean column variance: 0.968129; ||Y - Y0|| = 0.859213
Error after iteration 135: 0.131542; mean column variance: 0.968171; ||Y - Y0|| = 0.860432
Error after iteration 136: 0.131474; mean column variance: 0.968213; ||Y - Y0|| = 0.861639
Error after iteration 137: 0.131406; mean column variance: 0.968255; ||Y - Y0|| = 0.862836
Error after iteration 138: 0.131339; mean column variance: 0.968296; ||Y - Y0|| = 0.864022
Error after iteration 139: 0.131272; mean column variance: 0.968336; ||Y - Y0|| = 0.865198
Error after iteration 140: 0.131207; mean column variance: 0.968376; ||Y - Y0|| = 0.866363
Error after iteration 141: 0.131142; mean column variance: 0.968416; ||Y - Y0|| = 0.867518
Error after iteration 142: 0.131078; mean column variance: 0.968455; ||Y - Y0|| = 0.868663
Error after iteration 143: 0.131014; mean column variance: 0.968494; ||Y - Y0|| = 0.869799
Error after iteration 144: 0.130951; mean column variance: 0.968532; ||Y - Y0|| = 0.870925
Error after iteration 145: 0.130889; mean column variance: 0.968570; ||Y - Y0|| = 0.872041
Error after iteration 146: 0.130827; mean column variance: 0.968607; ||Y - Y0|| = 0.873148
Error after iteration 147: 0.130767; mean column variance: 0.968645; ||Y - Y0|| = 0.874246
Error after iteration 148: 0.130706; mean column variance: 0.968681; ||Y - Y0|| = 0.875334
Error after iteration 149: 0.130647; mean column variance: 0.968718; ||Y - Y0|| = 0.876414
Error after iteration 150: 0.130587; mean column variance: 0.968753; ||Y - Y0|| = 0.877485
Error after iteration 151: 0.130529; mean column variance: 0.968789; ||Y - Y0|| = 0.878547
Error after iteration 152: 0.130471; mean column variance: 0.968824; ||Y - Y0|| = 0.879600
Error after iteration 153: 0.130414; mean column variance: 0.968859; ||Y - Y0|| = 0.880646
Error after iteration 154: 0.130357; mean column variance: 0.968893; ||Y - Y0|| = 0.881682
Error after iteration 155: 0.130300; mean column variance: 0.968928; ||Y - Y0|| = 0.882711
Error after iteration 156: 0.130245; mean column variance: 0.968961; ||Y - Y0|| = 0.883732
Error after iteration 157: 0.130189; mean column variance: 0.968995; ||Y - Y0|| = 0.884744
Error after iteration 158: 0.130135; mean column variance: 0.969028; ||Y - Y0|| = 0.885749
Error after iteration 159: 0.130080; mean column variance: 0.969061; ||Y - Y0|| = 0.886746
Error after iteration 160: 0.130027; mean column variance: 0.969093; ||Y - Y0|| = 0.887735
Error after iteration 161: 0.129973; mean column variance: 0.969125; ||Y - Y0|| = 0.888717
Error after iteration 162: 0.129921; mean column variance: 0.969157; ||Y - Y0|| = 0.889691
Error after iteration 163: 0.129868; mean column variance: 0.969188; ||Y - Y0|| = 0.890658
Error after iteration 164: 0.129817; mean column variance: 0.969220; ||Y - Y0|| = 0.891617
Error after iteration 165: 0.129765; mean column variance: 0.969251; ||Y - Y0|| = 0.892570
Error after iteration 166: 0.129714; mean column variance: 0.969281; ||Y - Y0|| = 0.893515
Error after iteration 167: 0.129664; mean column variance: 0.969311; ||Y - Y0|| = 0.894454
Error after iteration 168: 0.129614; mean column variance: 0.969341; ||Y - Y0|| = 0.895385
Error after iteration 169: 0.129564; mean column variance: 0.969371; ||Y - Y0|| = 0.896310
Error after iteration 170: 0.129515; mean column variance: 0.969401; ||Y - Y0|| = 0.897228
Error after iteration 171: 0.129466; mean column variance: 0.969430; ||Y - Y0|| = 0.898139
Error after iteration 172: 0.129418; mean column variance: 0.969459; ||Y - Y0|| = 0.899044
Error after iteration 173: 0.129370; mean column variance: 0.969487; ||Y - Y0|| = 0.899943
Error after iteration 174: 0.129322; mean column variance: 0.969516; ||Y - Y0|| = 0.900835
Error after iteration 175: 0.129275; mean column variance: 0.969544; ||Y - Y0|| = 0.901720
Error after iteration 176: 0.129228; mean column variance: 0.969572; ||Y - Y0|| = 0.902600
Error after iteration 177: 0.129181; mean column variance: 0.969599; ||Y - Y0|| = 0.903473
Error after iteration 178: 0.129135; mean column variance: 0.969627; ||Y - Y0|| = 0.904340
Error after iteration 179: 0.129089; mean column variance: 0.969654; ||Y - Y0|| = 0.905201
Error after iteration 180: 0.129044; mean column variance: 0.969681; ||Y - Y0|| = 0.906057
Error after iteration 181: 0.128999; mean column variance: 0.969708; ||Y - Y0|| = 0.906906
Error after iteration 182: 0.128954; mean column variance: 0.969734; ||Y - Y0|| = 0.907750
Error after iteration 183: 0.128910; mean column variance: 0.969760; ||Y - Y0|| = 0.908587
Error after iteration 184: 0.128865; mean column variance: 0.969786; ||Y - Y0|| = 0.909419
Error after iteration 185: 0.128822; mean column variance: 0.969812; ||Y - Y0|| = 0.910246
Error after iteration 186: 0.128778; mean column variance: 0.969837; ||Y - Y0|| = 0.911067
Error after iteration 187: 0.128735; mean column variance: 0.969863; ||Y - Y0|| = 0.911882
Error after iteration 188: 0.128692; mean column variance: 0.969888; ||Y - Y0|| = 0.912692
Error after iteration 189: 0.128650; mean column variance: 0.969913; ||Y - Y0|| = 0.913497
Error after iteration 190: 0.128607; mean column variance: 0.969937; ||Y - Y0|| = 0.914296
Error after iteration 191: 0.128565; mean column variance: 0.969962; ||Y - Y0|| = 0.915091
Error after iteration 192: 0.128524; mean column variance: 0.969986; ||Y - Y0|| = 0.915880
Error after iteration 193: 0.128482; mean column variance: 0.970010; ||Y - Y0|| = 0.916663
Error after iteration 194: 0.128441; mean column variance: 0.970034; ||Y - Y0|| = 0.917442
Error after iteration 195: 0.128400; mean column variance: 0.970058; ||Y - Y0|| = 0.918216
Error after iteration 196: 0.128360; mean column variance: 0.970081; ||Y - Y0|| = 0.918984
Error after iteration 197: 0.128320; mean column variance: 0.970104; ||Y - Y0|| = 0.919748
Error after iteration 198: 0.128280; mean column variance: 0.970128; ||Y - Y0|| = 0.920507
Error after iteration 199: 0.128240; mean column variance: 0.970150; ||Y - Y0|| = 0.921261
Error after iteration 200: 0.128200; mean column variance: 0.970173; ||Y - Y0|| = 0.922010
Error after iteration 201: 0.128161; mean column variance: 0.970196; ||Y - Y0|| = 0.922755
Error after iteration 202: 0.128122; mean column variance: 0.970218; ||Y - Y0|| = 0.923495
Error after iteration 203: 0.128083; mean column variance: 0.970240; ||Y - Y0|| = 0.924230
Error after iteration 204: 0.128045; mean column variance: 0.970262; ||Y - Y0|| = 0.924961
Error after iteration 205: 0.128006; mean column variance: 0.970284; ||Y - Y0|| = 0.925687
Error after iteration 206: 0.127968; mean column variance: 0.970306; ||Y - Y0|| = 0.926409
Error after iteration 207: 0.127930; mean column variance: 0.970327; ||Y - Y0|| = 0.927126
Error after iteration 208: 0.127893; mean column variance: 0.970349; ||Y - Y0|| = 0.927839
Error after iteration 209: 0.127855; mean column variance: 0.970370; ||Y - Y0|| = 0.928547
Error after iteration 210: 0.127818; mean column variance: 0.970391; ||Y - Y0|| = 0.929252
Error after iteration 211: 0.127781; mean column variance: 0.970412; ||Y - Y0|| = 0.929952
Error after iteration 212: 0.127745; mean column variance: 0.970432; ||Y - Y0|| = 0.930647
Error after iteration 213: 0.127708; mean column variance: 0.970453; ||Y - Y0|| = 0.931339
Error after iteration 214: 0.127672; mean column variance: 0.970473; ||Y - Y0|| = 0.932026
Error after iteration 215: 0.127636; mean column variance: 0.970493; ||Y - Y0|| = 0.932709
Error after iteration 216: 0.127600; mean column variance: 0.970514; ||Y - Y0|| = 0.933389
Error after iteration 217: 0.127564; mean column variance: 0.970533; ||Y - Y0|| = 0.934064
Error after iteration 218: 0.127528; mean column variance: 0.970553; ||Y - Y0|| = 0.934735
Error after iteration 219: 0.127493; mean column variance: 0.970573; ||Y - Y0|| = 0.935402
Error after iteration 220: 0.127458; mean column variance: 0.970592; ||Y - Y0|| = 0.936065
Error after iteration 221: 0.127423; mean column variance: 0.970612; ||Y - Y0|| = 0.936725
Error after iteration 222: 0.127388; mean column variance: 0.970631; ||Y - Y0|| = 0.937380
Error after iteration 223: 0.127353; mean column variance: 0.970650; ||Y - Y0|| = 0.938032
Error after iteration 224: 0.127319; mean column variance: 0.970669; ||Y - Y0|| = 0.938680
Error after iteration 225: 0.127285; mean column variance: 0.970688; ||Y - Y0|| = 0.939324
Error after iteration 226: 0.127251; mean column variance: 0.970706; ||Y - Y0|| = 0.939965
Error after iteration 227: 0.127217; mean column variance: 0.970725; ||Y - Y0|| = 0.940602
Error after iteration 228: 0.127183; mean column variance: 0.970743; ||Y - Y0|| = 0.941235
Error after iteration 229: 0.127149; mean column variance: 0.970761; ||Y - Y0|| = 0.941864
Error after iteration 230: 0.127116; mean column variance: 0.970780; ||Y - Y0|| = 0.942490
Error after iteration 231: 0.127083; mean column variance: 0.970798; ||Y - Y0|| = 0.943113
Error after iteration 232: 0.127050; mean column variance: 0.970815; ||Y - Y0|| = 0.943732
Error after iteration 233: 0.127017; mean column variance: 0.970833; ||Y - Y0|| = 0.944347
Error after iteration 234: 0.126984; mean column variance: 0.970851; ||Y - Y0|| = 0.944959
Error after iteration 235: 0.126951; mean column variance: 0.970868; ||Y - Y0|| = 0.945568
Error after iteration 236: 0.126919; mean column variance: 0.970886; ||Y - Y0|| = 0.946173
Error after iteration 237: 0.126887; mean column variance: 0.970903; ||Y - Y0|| = 0.946775
Error after iteration 238: 0.126854; mean column variance: 0.970920; ||Y - Y0|| = 0.947374
Error after iteration 239: 0.126822; mean column variance: 0.970937; ||Y - Y0|| = 0.947969
Error after iteration 240: 0.126790; mean column variance: 0.970954; ||Y - Y0|| = 0.948561
Error after iteration 241: 0.126759; mean column variance: 0.970971; ||Y - Y0|| = 0.949150
Error after iteration 242: 0.126727; mean column variance: 0.970988; ||Y - Y0|| = 0.949735
Error after iteration 243: 0.126696; mean column variance: 0.971004; ||Y - Y0|| = 0.950318
Error after iteration 244: 0.126664; mean column variance: 0.971021; ||Y - Y0|| = 0.950897
Error after iteration 245: 0.126633; mean column variance: 0.971037; ||Y - Y0|| = 0.951473
Error after iteration 246: 0.126602; mean column variance: 0.971053; ||Y - Y0|| = 0.952046
Error after iteration 247: 0.126571; mean column variance: 0.971070; ||Y - Y0|| = 0.952616
Error after iteration 248: 0.126540; mean column variance: 0.971086; ||Y - Y0|| = 0.953183
Error after iteration 249: 0.126510; mean column variance: 0.971102; ||Y - Y0|| = 0.953747
Error after iteration 250: 0.126479; mean column variance: 0.971117; ||Y - Y0|| = 0.954307
Error after iteration 251: 0.126449; mean column variance: 0.971133; ||Y - Y0|| = 0.954865
Error after iteration 252: 0.126418; mean column variance: 0.971149; ||Y - Y0|| = 0.955420
Error after iteration 253: 0.126388; mean column variance: 0.971164; ||Y - Y0|| = 0.955972
Error after iteration 254: 0.126358; mean column variance: 0.971180; ||Y - Y0|| = 0.956521
Error after iteration 255: 0.126328; mean column variance: 0.971195; ||Y - Y0|| = 0.957067
Error after iteration 256: 0.126298; mean column variance: 0.971210; ||Y - Y0|| = 0.957611
Error after iteration 257: 0.126269; mean column variance: 0.971225; ||Y - Y0|| = 0.958151
Error after iteration 258: 0.126239; mean column variance: 0.971241; ||Y - Y0|| = 0.958689
Error after iteration 259: 0.126209; mean column variance: 0.971255; ||Y - Y0|| = 0.959224
Error after iteration 260: 0.126180; mean column variance: 0.971270; ||Y - Y0|| = 0.959756
Error after iteration 261: 0.126151; mean column variance: 0.971285; ||Y - Y0|| = 0.960285
Error after iteration 262: 0.126122; mean column variance: 0.971300; ||Y - Y0|| = 0.960812
Error after iteration 263: 0.126093; mean column variance: 0.971314; ||Y - Y0|| = 0.961336
Error after iteration 264: 0.126064; mean column variance: 0.971329; ||Y - Y0|| = 0.961857
Error after iteration 265: 0.126035; mean column variance: 0.971343; ||Y - Y0|| = 0.962376
Error after iteration 266: 0.126006; mean column variance: 0.971358; ||Y - Y0|| = 0.962892
Error after iteration 267: 0.125977; mean column variance: 0.971372; ||Y - Y0|| = 0.963405
Error after iteration 268: 0.125949; mean column variance: 0.971386; ||Y - Y0|| = 0.963916
Error after iteration 269: 0.125920; mean column variance: 0.971400; ||Y - Y0|| = 0.964424
Error after iteration 270: 0.125892; mean column variance: 0.971414; ||Y - Y0|| = 0.964930
Error after iteration 271: 0.125864; mean column variance: 0.971428; ||Y - Y0|| = 0.965433
Error after iteration 272: 0.125836; mean column variance: 0.971442; ||Y - Y0|| = 0.965933
Error after iteration 273: 0.125808; mean column variance: 0.971456; ||Y - Y0|| = 0.966431
Error after iteration 274: 0.125780; mean column variance: 0.971469; ||Y - Y0|| = 0.966927
Error after iteration 275: 0.125752; mean column variance: 0.971483; ||Y - Y0|| = 0.967420
Error after iteration 276: 0.125724; mean column variance: 0.971496; ||Y - Y0|| = 0.967911
Error after iteration 277: 0.125696; mean column variance: 0.971510; ||Y - Y0|| = 0.968399
Error after iteration 278: 0.125669; mean column variance: 0.971523; ||Y - Y0|| = 0.968885
Error after iteration 279: 0.125641; mean column variance: 0.971536; ||Y - Y0|| = 0.969369
Error after iteration 280: 0.125614; mean column variance: 0.971550; ||Y - Y0|| = 0.969850
Error after iteration 281: 0.125586; mean column variance: 0.971563; ||Y - Y0|| = 0.970329
Error after iteration 282: 0.125559; mean column variance: 0.971576; ||Y - Y0|| = 0.970806
Error after iteration 283: 0.125532; mean column variance: 0.971589; ||Y - Y0|| = 0.971280
Error after iteration 284: 0.125505; mean column variance: 0.971602; ||Y - Y0|| = 0.971752
Error after iteration 285: 0.125478; mean column variance: 0.971614; ||Y - Y0|| = 0.972221
||W0 to Y|| = 1.12374307429
